{
  "project_info": {
    "project_number": "605187969920",
    "firebase_url": "https://goalmeter-flutter.firebaseio.com",
    "project_id": "goalmeter-flutter",
    "storage_bucket": "goalmeter-flutter.appspot.com"
  },
  "client": [
    {
      "client_info": {
        "mobilesdk_app_id": "1:605187969920:android:eafa7b214e7eb358",
        "android_client_info": {
          "package_name": "com.meterapps.goalmeter.goalMeter"
        }
      },
      "oauth_client": [
        {
          "client_id": "605187969920-0rqedejsk0narvu30shh530l2vhqkp5s.apps.googleusercontent.com",
          "client_type": 1,
          "android_info": {
            "package_name": "com.meterapps.goalmeter.goalMeter",
            "certificate_hash": "ce940ebf05408a52e64b01698a173d97b613303d"
          }
        },
        {
          "client_id": "605187969920-oir3ji6co999mvotk5njr6t8qsg65jrm.apps.googleusercontent.com",
          "client_type": 3
        }
      ],
      "api_key": [
        {
          "current_key": "AIzaSyBAptmkPMclCO9S0Ufr4V3WvXfuGV-JlSs"
        }
      ],
      "services": {
        "appinvite_service": {
          "other_platform_oauth_client": [
            {
              "client_id": "605187969920-oir3ji6co999mvotk5njr6t8qsg65jrm.apps.googleusercontent.com",
              "client_type": 3
            },
            {
              "client_id": "605187969920-ls59h7s457vn2o4pcp51f3dtvdm3qq9e.apps.googleusercontent.com",
              "client_type": 2,
              "ios_info": {
                "bundle_id": "com.meterapps.goalmeter.goalMeter"
              }
            }
          ]
        }
      }
    }
  ],
  "configuration_version": "1"
}